22/09/16 22:55:38.143 Info  Thu Sep 22 22:55:38 2016
22/09/16 22:55:38.149 Info  RUNNING SCRIPT 'iQ3_PerformanceEPGChannelGroup'
22/09/16 22:55:38.153 Info  RUN NUMBER: 3479
22/09/16 22:55:38.157 Info  SIGNAL MAP: 28
22/09/16 22:55:38.161 Info  VERSION INFO:
22/09/16 22:55:38.165 Info  ateengd version: 4.0.8 [nco-ate-srv1:8080]
22/09/16 22:55:38.169 Info  atedbad version: 4.0.8 [172.22.104.110:8108]
22/09/16 22:55:38.173 Info  ateavad version: 4.0.8 [172.22.104.120:8112]
ateavad version: 4.0.8 [172.22.104.121:8112]
22/09/16 22:55:38.177 Info  ateircd version: 4.0.8 [172.22.104.110:8110]
22/09/16 22:55:38.181 Info  atepwrd version: 4.0.8 [172.22.104.110:8106]

22/09/16 22:55:38.185 Info  Tcl version: 8.4.11
22/09/16 22:55:38.199 Info  005: miriate::source 'iQ3_Utilities'
22/09/16 22:55:38.207 Info  Running script 'iQ3_Utilities' from database (depth=1)
22/09/16 22:55:38.219 Info  SRC:005:     ::source /tmp/miriatetGbJXB
22/09/16 22:55:38.221 Info  Finished running script 'iQ3_Utilities' from database
22/09/16 22:55:38.244 Info  014: set loopLimit 28
22/09/16 22:55:38.259 Info  016: set timeNumber {0 0 0 0}
22/09/16 22:55:38.271 Info  017: set runNumber {0 0 0 0}
22/09/16 22:55:38.287 Info  018: set channelGroupDownKey 0
22/09/16 22:55:38.299 Info  019: set channelGroupImage ' '
22/09/16 22:55:38.315 Info  021: miriate::ir::send 'Foxtel'
22/09/16 22:55:38.318 Info  Result: ATE_OK
22/09/16 22:55:38.331 Info  022: after 10000
22/09/16 22:55:49.367 Info  023: tuneToChannel '831'
22/09/16 22:55:49.415 Info  Result: ATE_OK
22/09/16 22:55:50.522 Info  Result: ATE_OK
22/09/16 22:55:51.658 Info  Result: ATE_OK
22/09/16 22:55:52.780 Info  Result: ATE_OK
22/09/16 22:55:55.762 Info  Result: ATE_OK
22/09/16 22:55:55.811 Info  024: after 10000
22/09/16 22:56:06.850 Info  026: for {set loopVar0 0} {$loopVar0 < $loopLimit} {incr loopVar0 1} {
22/09/16 22:56:06.883 Info  026:     set loopVar0 0
22/09/16 22:56:06.900 Info  028:     miriate::ir::send 'TV_Guide'
22/09/16 22:56:06.904 Info  Result: ATE_OK
22/09/16 22:56:08.231 Info  Result: ATE_OK
22/09/16 22:56:08.270 Info  029:     set epgMainScreen [miriate::av::regioncompare 95.0 $EPGMainBlackBackgroundImage $EPGMainMask 'SYNC' 'ALL' 10000 'ALL']
22/09/16 22:56:08.276 Info  029:     set epgMainScreen [miriate::av::regioncompare 95.0 iQ3_EPGMainBlackBackground_v1.10.1.10 iQ3_EPGMain 'SYNC' 'ALL' 10000 'ALL']
22/09/16 22:56:08.290 Info  030:     if {[miriate::result::isok $epgMainScreen]} {
22/09/16 22:56:08.296 Info  030:     if {[miriate::result::isok 0]} {
22/09/16 22:56:08.310 Info  030:     miriate::result::isok $epgMainScreen]
22/09/16 22:56:08.312 Info  030:     miriate::result::isok 0]
22/09/16 22:56:08.317 Info  Result: ATE_OK
22/09/16 22:56:10.525 Info  Result: ATE_OK
22/09/16 22:56:15.660 Warn  Result: ANALYSER: TIME_OUT
22/09/16 22:56:15.686 Warn  Timeout map: '28'
22/09/16 22:56:15.691 Error SCRIPT FAILED: EPG channel genre did not load
22/09/16 22:56:15.707 Info  084:     miriate::ir::send 'Foxtel'
22/09/16 22:56:15.712 Info  Result: ATE_OK
22/09/16 22:56:15.727 Info  085:     after 5000
22/09/16 22:56:21.251 Info  026:     incr loopVar0 1
22/09/16 22:56:21.289 Info  028:     miriate::ir::send 'TV_Guide'
22/09/16 22:56:21.294 Info  Result: ATE_OK
22/09/16 22:56:22.830 Info  Result: ATE_OK
22/09/16 22:56:22.879 Info  029:     set epgMainScreen [miriate::av::regioncompare 95.0 $EPGMainBlackBackgroundImage $EPGMainMask 'SYNC' 'ALL' 10000 'ALL']
22/09/16 22:56:22.884 Info  029:     set epgMainScreen [miriate::av::regioncompare 95.0 iQ3_EPGMainBlackBackground_v1.10.1.10 iQ3_EPGMain 'SYNC' 'ALL' 10000 'ALL']
22/09/16 22:56:22.898 Info  030:     if {[miriate::result::isok $epgMainScreen]} {
22/09/16 22:56:22.903 Info  030:     if {[miriate::result::isok 0]} {
22/09/16 22:56:22.918 Info  030:     miriate::result::isok $epgMainScreen]
22/09/16 22:56:22.923 Info  030:     miriate::result::isok 0]
22/09/16 22:56:22.929 Info  Result: ATE_OK
22/09/16 22:56:25.137 Info  Result: ATE_OK
22/09/16 22:56:27.366 Info  Result: ATE_OK
22/09/16 22:56:32.444 Warn  Result: ANALYSER: TIME_OUT
22/09/16 22:56:32.462 Warn  Timeout map: '28'
22/09/16 22:56:32.478 Info  084:     miriate::ir::send 'Foxtel'
22/09/16 22:56:32.484 Info  Result: ATE_OK
22/09/16 22:56:32.497 Info  085:     after 5000
22/09/16 22:56:38. 23 Info  026:     incr loopVar0 1
22/09/16 22:56:38. 74 Info  028:     miriate::ir::send 'TV_Guide'
22/09/16 22:56:38. 80 Info  Result: ATE_OK
22/09/16 22:56:39.988 Info  Result: ATE_OK
22/09/16 22:56:40. 25 Info  029:     set epgMainScreen [miriate::av::regioncompare 95.0 $EPGMainBlackBackgroundImage $EPGMainMask 'SYNC' 'ALL' 10000 'ALL']
22/09/16 22:56:40. 39 Info  029:     set epgMainScreen [miriate::av::regioncompare 95.0 iQ3_EPGMainBlackBackground_v1.10.1.10 iQ3_EPGMain 'SYNC' 'ALL' 10000 'ALL']
22/09/16 22:56:40. 56 Info  030:     if {[miriate::result::isok $epgMainScreen]} {
22/09/16 22:56:40. 59 Info  030:     if {[miriate::result::isok 0]} {
22/09/16 22:56:40. 73 Info  030:     miriate::result::isok $epgMainScreen]
22/09/16 22:56:40. 78 Info  030:     miriate::result::isok 0]
22/09/16 22:56:40. 84 Info  Result: ATE_OK
22/09/16 22:56:42.292 Info  Result: ATE_OK
22/09/16 22:56:44.538 Info  Result: ATE_OK
22/09/16 22:56:46.790 Info  Result: ATE_OK
22/09/16 22:56:49. 13 Info  Result: ATE_OK
22/09/16 22:56:54.148 Warn  Result: ANALYSER: TIME_OUT
22/09/16 22:56:54.175 Warn  Timeout map: '28'
22/09/16 22:56:54.190 Info  084:     miriate::ir::send 'Foxtel'
22/09/16 22:56:54.193 Info  Result: ATE_OK
22/09/16 22:56:54.206 Info  085:     after 5000
22/09/16 22:56:59.728 Info  026:     incr loopVar0 1
22/09/16 22:56:59.762 Info  028:     miriate::ir::send 'TV_Guide'
22/09/16 22:56:59.770 Info  Result: ATE_OK
22/09/16 22:57:01.306 Info  Result: ATE_OK
22/09/16 22:57:01.366 Info  029:     set epgMainScreen [miriate::av::regioncompare 95.0 $EPGMainBlackBackgroundImage $EPGMainMask 'SYNC' 'ALL' 10000 'ALL']
22/09/16 22:57:01.370 Info  029:     set epgMainScreen [miriate::av::regioncompare 95.0 iQ3_EPGMainBlackBackground_v1.10.1.10 iQ3_EPGMain 'SYNC' 'ALL' 10000 'ALL']
22/09/16 22:57:01.384 Info  030:     if {[miriate::result::isok $epgMainScreen]} {
22/09/16 22:57:01.389 Info  030:     if {[miriate::result::isok 0]} {
22/09/16 22:57:01.404 Info  030:     miriate::result::isok $epgMainScreen]
22/09/16 22:57:01.409 Info  030:     miriate::result::isok 0]
22/09/16 22:57:01.415 Info  Result: ATE_OK
22/09/16 22:57:03.623 Info  Result: ATE_OK
22/09/16 22:57:05.853 Info  Result: ATE_OK
22/09/16 22:57:08. 89 Info  Result: ATE_OK
22/09/16 22:57:10.309 Info  Result: ATE_OK
22/09/16 22:57:12.543 Info  Result: ATE_OK
22/09/16 22:57:17.670 Warn  Result: ANALYSER: TIME_OUT
22/09/16 22:57:17.709 Warn  Timeout map: '28'
22/09/16 22:57:17.725 Info  084:     miriate::ir::send 'Foxtel'
22/09/16 22:57:17.731 Info  Result: ATE_OK
22/09/16 22:57:17.745 Info  085:     after 5000
22/09/16 22:57:23.270 Info  026:     incr loopVar0 1
22/09/16 22:57:23.309 Info  028:     miriate::ir::send 'TV_Guide'
22/09/16 22:57:23.315 Info  Result: ATE_OK
22/09/16 22:57:24.590 Info  Result: ATE_OK
22/09/16 22:57:24.651 Info  029:     set epgMainScreen [miriate::av::regioncompare 95.0 $EPGMainBlackBackgroundImage $EPGMainMask 'SYNC' 'ALL' 10000 'ALL']
22/09/16 22:57:24.657 Info  029:     set epgMainScreen [miriate::av::regioncompare 95.0 iQ3_EPGMainBlackBackground_v1.10.1.10 iQ3_EPGMain 'SYNC' 'ALL' 10000 'ALL']
22/09/16 22:57:24.671 Info  030:     if {[miriate::result::isok $epgMainScreen]} {
22/09/16 22:57:24.673 Info  030:     if {[miriate::result::isok 0]} {
22/09/16 22:57:24.687 Info  030:     miriate::result::isok $epgMainScreen]
22/09/16 22:57:24.689 Info  030:     miriate::result::isok 0]
22/09/16 22:57:24.694 Info  Result: ATE_OK
22/09/16 22:57:26.902 Info  Result: ATE_OK
22/09/16 22:57:29.466 Info  Result: ATE_OK
22/09/16 22:57:29.500 Info  084:     miriate::ir::send 'Foxtel'
22/09/16 22:57:29.505 Info  Result: ATE_OK
22/09/16 22:57:29.521 Info  085:     after 5000
22/09/16 22:57:35. 45 Info  026:     incr loopVar0 1
22/09/16 22:57:35. 77 Info  028:     miriate::ir::send 'TV_Guide'
22/09/16 22:57:35. 82 Info  Result: ATE_OK
22/09/16 22:57:36.778 Info  Result: ATE_OK
22/09/16 22:57:36.809 Info  029:     set epgMainScreen [miriate::av::regioncompare 95.0 $EPGMainBlackBackgroundImage $EPGMainMask 'SYNC' 'ALL' 10000 'ALL']
22/09/16 22:57:36.815 Info  029:     set epgMainScreen [miriate::av::regioncompare 95.0 iQ3_EPGMainBlackBackground_v1.10.1.10 iQ3_EPGMain 'SYNC' 'ALL' 10000 'ALL']
22/09/16 22:57:36.829 Info  030:     if {[miriate::result::isok $epgMainScreen]} {
22/09/16 22:57:36.834 Info  030:     if {[miriate::result::isok 0]} {
22/09/16 22:57:36.849 Info  030:     miriate::result::isok $epgMainScreen]
22/09/16 22:57:36.854 Info  030:     miriate::result::isok 0]
22/09/16 22:57:36.859 Info  Result: ATE_OK
22/09/16 22:57:39. 67 Info  Result: ATE_OK
22/09/16 22:57:41.296 Info  Result: ATE_OK
22/09/16 22:57:42.794 Info  Result: ATE_OK
22/09/16 22:57:42.818 Info  084:     miriate::ir::send 'Foxtel'
22/09/16 22:57:42.826 Info  Result: ATE_OK
22/09/16 22:57:42.840 Info  085:     after 5000
22/09/16 22:57:48.365 Info  026:     incr loopVar0 1
22/09/16 22:57:48.408 Info  028:     miriate::ir::send 'TV_Guide'
22/09/16 22:57:48.414 Info  Result: ATE_OK
22/09/16 22:57:58.527 Warn  Result: ANALYSER: TIME_OUT
22/09/16 22:57:58.555 Warn  Timeout map: '28'
22/09/16 22:57:58.569 Info  029:     set epgMainScreen [miriate::av::regioncompare 95.0 $EPGMainBlackBackgroundImage $EPGMainMask 'SYNC' 'ALL' 10000 'ALL']
22/09/16 22:57:58.571 Info  029:     set epgMainScreen [miriate::av::regioncompare 95.0 iQ3_EPGMainBlackBackground_v1.10.1.10 iQ3_EPGMain 'SYNC' 'ALL' 10000 'ALL']
22/09/16 22:57:58.585 Info  030:     if {[miriate::result::isok $epgMainScreen]} {
22/09/16 22:57:58.587 Info  030:     if {[miriate::result::isok 2147680261]} {
22/09/16 22:57:58.601 Info  030:     miriate::result::isok $epgMainScreen]
22/09/16 22:57:58.603 Info  030:     miriate::result::isok 2147680261]
22/09/16 22:57:58.617 Info  084:     miriate::ir::send 'Foxtel'
22/09/16 22:57:58.620 Info  Result: ATE_OK
22/09/16 22:57:58.633 Info  085:     after 5000
22/09/16 22:58:04.155 Info  026:     incr loopVar0 1
22/09/16 22:58:04.202 Info  028:     miriate::ir::send 'TV_Guide'
22/09/16 22:58:04.209 Info  Result: ATE_OK
22/09/16 22:58:05.695 Info  Result: ATE_OK
22/09/16 22:58:05.733 Info  029:     set epgMainScreen [miriate::av::regioncompare 95.0 $EPGMainBlackBackgroundImage $EPGMainMask 'SYNC' 'ALL' 10000 'ALL']
22/09/16 22:58:05.737 Info  029:     set epgMainScreen [miriate::av::regioncompare 95.0 iQ3_EPGMainBlackBackground_v1.10.1.10 iQ3_EPGMain 'SYNC' 'ALL' 10000 'ALL']
22/09/16 22:58:05.751 Info  030:     if {[miriate::result::isok $epgMainScreen]} {
22/09/16 22:58:05.756 Info  030:     if {[miriate::result::isok 0]} {
22/09/16 22:58:05.771 Info  030:     miriate::result::isok $epgMainScreen]
22/09/16 22:58:05.776 Info  030:     miriate::result::isok 0]
22/09/16 22:58:05.782 Info  Result: ATE_OK
22/09/16 22:58:07.990 Info  Result: ATE_OK
22/09/16 22:58:10.222 Info  Result: ATE_OK
22/09/16 22:58:12.458 Info  Result: ATE_OK
22/09/16 22:58:14.677 Info  Result: ATE_OK
22/09/16 22:58:16.910 Info  Result: ATE_OK
22/09/16 22:58:22. 35 Warn  Result: ANALYSER: TIME_OUT
22/09/16 22:58:22. 66 Warn  Timeout map: '28'
22/09/16 22:58:22. 80 Info  084:     miriate::ir::send 'Foxtel'
22/09/16 22:58:22. 86 Info  Result: ATE_OK
22/09/16 22:58:22.100 Info  085:     after 5000
22/09/16 22:58:27.625 Info  026:     incr loopVar0 1
22/09/16 22:58:27.650 Info  028:     miriate::ir::send 'TV_Guide'
22/09/16 22:58:27.657 Info  Result: ATE_OK
22/09/16 22:58:30.196 Info  Result: ATE_OK
22/09/16 22:58:30.236 Info  029:     set epgMainScreen [miriate::av::regioncompare 95.0 $EPGMainBlackBackgroundImage $EPGMainMask 'SYNC' 'ALL' 10000 'ALL']
22/09/16 22:58:30.242 Info  029:     set epgMainScreen [miriate::av::regioncompare 95.0 iQ3_EPGMainBlackBackground_v1.10.1.10 iQ3_EPGMain 'SYNC' 'ALL' 10000 'ALL']
22/09/16 22:58:30.257 Info  030:     if {[miriate::result::isok $epgMainScreen]} {
22/09/16 22:58:30.261 Info  030:     if {[miriate::result::isok 0]} {
22/09/16 22:58:30.277 Info  030:     miriate::result::isok $epgMainScreen]
22/09/16 22:58:30.281 Info  030:     miriate::result::isok 0]
22/09/16 22:58:30.286 Info  Result: ATE_OK
22/09/16 22:58:32.495 Info  Result: ATE_OK
22/09/16 22:58:34.837 Info  Result: ATE_OK
22/09/16 22:58:34.876 Info  084:     miriate::ir::send 'Foxtel'
22/09/16 22:58:34.881 Info  Result: ATE_OK
22/09/16 22:58:34.894 Info  085:     after 5000
22/09/16 22:58:40.420 Info  026:     incr loopVar0 1
22/09/16 22:58:40.445 Info  028:     miriate::ir::send 'TV_Guide'
22/09/16 22:58:40.453 Info  Result: ATE_OK
22/09/16 22:58:42.200 Info  Result: ATE_OK
22/09/16 22:58:42.236 Info  029:     set epgMainScreen [miriate::av::regioncompare 95.0 $EPGMainBlackBackgroundImage $EPGMainMask 'SYNC' 'ALL' 10000 'ALL']
22/09/16 22:58:42.249 Info  029:     set epgMainScreen [miriate::av::regioncompare 95.0 iQ3_EPGMainBlackBackground_v1.10.1.10 iQ3_EPGMain 'SYNC' 'ALL' 10000 'ALL']
22/09/16 22:58:42.270 Info  030:     if {[miriate::result::isok $epgMainScreen]} {
22/09/16 22:58:42.283 Info  030:     if {[miriate::result::isok 0]} {
22/09/16 22:58:42.313 Info  030:     miriate::result::isok $epgMainScreen]
22/09/16 22:58:42.327 Info  030:     miriate::result::isok 0]
22/09/16 22:58:42.337 Info  Result: ATE_OK
22/09/16 22:58:44.568 Info  Result: ATE_OK
22/09/16 22:58:46.816 Info  Result: ATE_OK
22/09/16 22:58:51.898 Warn  Result: ANALYSER: TIME_OUT
22/09/16 22:58:51.922 Warn  Timeout map: '28'
22/09/16 22:58:51.938 Info  084:     miriate::ir::send 'Foxtel'
22/09/16 22:58:51.943 Info  Result: ATE_OK
22/09/16 22:58:51.958 Info  085:     after 5000
22/09/16 22:58:57.483 Info  026:     incr loopVar0 1
22/09/16 22:58:57.508 Info  028:     miriate::ir::send 'TV_Guide'
22/09/16 22:58:57.514 Info  Result: ATE_OK
22/09/16 22:58:58.789 Info  Result: ATE_OK
22/09/16 22:58:58.849 Info  029:     set epgMainScreen [miriate::av::regioncompare 95.0 $EPGMainBlackBackgroundImage $EPGMainMask 'SYNC' 'ALL' 10000 'ALL']
22/09/16 22:58:58.855 Info  029:     set epgMainScreen [miriate::av::regioncompare 95.0 iQ3_EPGMainBlackBackground_v1.10.1.10 iQ3_EPGMain 'SYNC' 'ALL' 10000 'ALL']
22/09/16 22:58:58.869 Info  030:     if {[miriate::result::isok $epgMainScreen]} {
22/09/16 22:58:58.873 Info  030:     if {[miriate::result::isok 0]} {
22/09/16 22:58:58.887 Info  030:     miriate::result::isok $epgMainScreen]
22/09/16 22:58:58.891 Info  030:     miriate::result::isok 0]
22/09/16 22:58:58.896 Info  Result: ATE_OK
22/09/16 22:59:01.105 Info  Result: ATE_OK
22/09/16 22:59:03.336 Info  Result: ATE_OK
22/09/16 22:59:05.557 Info  Result: ATE_OK
22/09/16 22:59:07.792 Info  Result: ATE_OK
22/09/16 22:59:12.866 Warn  Result: ANALYSER: TIME_OUT
22/09/16 22:59:12.894 Warn  Timeout map: '28'
22/09/16 22:59:12.910 Info  084:     miriate::ir::send 'Foxtel'
22/09/16 22:59:12.913 Info  Result: ATE_OK
22/09/16 22:59:12.927 Info  085:     after 5000
22/09/16 22:59:18.452 Info  026:     incr loopVar0 1
22/09/16 22:59:18.476 Info  028:     miriate::ir::send 'TV_Guide'
22/09/16 22:59:18.482 Info  Result: ATE_OK
22/09/16 22:59:19.757 Info  Result: ATE_OK
22/09/16 22:59:19.817 Info  029:     set epgMainScreen [miriate::av::regioncompare 95.0 $EPGMainBlackBackgroundImage $EPGMainMask 'SYNC' 'ALL' 10000 'ALL']
22/09/16 22:59:19.824 Info  029:     set epgMainScreen [miriate::av::regioncompare 95.0 iQ3_EPGMainBlackBackground_v1.10.1.10 iQ3_EPGMain 'SYNC' 'ALL' 10000 'ALL']
22/09/16 22:59:19.838 Info  030:     if {[miriate::result::isok $epgMainScreen]} {
22/09/16 22:59:19.841 Info  030:     if {[miriate::result::isok 0]} {
22/09/16 22:59:19.856 Info  030:     miriate::result::isok $epgMainScreen]
22/09/16 22:59:19.859 Info  030:     miriate::result::isok 0]
22/09/16 22:59:19.864 Info  Result: ATE_OK
22/09/16 22:59:22. 74 Info  Result: ATE_OK
22/09/16 22:59:24.316 Info  Result: ATE_OK
22/09/16 22:59:26.569 Info  Result: ATE_OK
22/09/16 22:59:28.788 Info  Result: ATE_OK
22/09/16 22:59:31. 11 Info  Result: ATE_OK
22/09/16 22:59:32.979 Info  Result: ATE_OK
22/09/16 22:59:33.  8 Info  084:     miriate::ir::send 'Foxtel'
22/09/16 22:59:33. 23 Info  Result: ATE_OK
22/09/16 22:59:33. 39 Info  085:     after 5000
22/09/16 22:59:38.565 Info  026:     incr loopVar0 1
22/09/16 22:59:38.590 Info  028:     miriate::ir::send 'TV_Guide'
22/09/16 22:59:38.596 Info  Result: ATE_OK
22/09/16 22:59:39.710 Info  Result: ATE_OK
22/09/16 22:59:39.745 Info  029:     set epgMainScreen [miriate::av::regioncompare 95.0 $EPGMainBlackBackgroundImage $EPGMainMask 'SYNC' 'ALL' 10000 'ALL']
22/09/16 22:59:39.748 Info  029:     set epgMainScreen [miriate::av::regioncompare 95.0 iQ3_EPGMainBlackBackground_v1.10.1.10 iQ3_EPGMain 'SYNC' 'ALL' 10000 'ALL']
22/09/16 22:59:39.762 Info  030:     if {[miriate::result::isok $epgMainScreen]} {
22/09/16 22:59:39.764 Info  030:     if {[miriate::result::isok 0]} {
22/09/16 22:59:39.778 Info  030:     miriate::result::isok $epgMainScreen]
22/09/16 22:59:39.780 Info  030:     miriate::result::isok 0]
22/09/16 22:59:39.785 Info  Result: ATE_OK
22/09/16 22:59:41.993 Info  Result: ATE_OK
22/09/16 22:59:47.127 Warn  Result: ANALYSER: TIME_OUT
22/09/16 22:59:47.154 Warn  Timeout map: '28'
22/09/16 22:59:47.170 Info  084:     miriate::ir::send 'Foxtel'
22/09/16 22:59:47.174 Info  Result: ATE_OK
22/09/16 22:59:47.187 Info  085:     after 5000
22/09/16 22:59:52.712 Info  026:     incr loopVar0 1
22/09/16 22:59:52.736 Info  028:     miriate::ir::send 'TV_Guide'
22/09/16 22:59:52.743 Info  Result: ATE_OK
22/09/16 22:59:54. 18 Info  Result: ATE_OK
22/09/16 22:59:54. 63 Info  029:     set epgMainScreen [miriate::av::regioncompare 95.0 $EPGMainBlackBackgroundImage $EPGMainMask 'SYNC' 'ALL' 10000 'ALL']
22/09/16 22:59:54. 70 Info  029:     set epgMainScreen [miriate::av::regioncompare 95.0 iQ3_EPGMainBlackBackground_v1.10.1.10 iQ3_EPGMain 'SYNC' 'ALL' 10000 'ALL']
22/09/16 22:59:54. 84 Info  030:     if {[miriate::result::isok $epgMainScreen]} {
22/09/16 22:59:54. 88 Info  030:     if {[miriate::result::isok 0]} {
22/09/16 22:59:54.104 Info  030:     miriate::result::isok $epgMainScreen]
22/09/16 22:59:54.108 Info  030:     miriate::result::isok 0]
22/09/16 22:59:54.114 Info  Result: ATE_OK
22/09/16 22:59:56.323 Info  Result: ATE_OK
22/09/16 22:59:58.558 Info  Result: ATE_OK
22/09/16 22:59:59.847 Info  Result: ATE_OK
22/09/16 22:59:59.872 Info  084:     miriate::ir::send 'Foxtel'
22/09/16 22:59:59.879 Info  Result: ATE_OK
22/09/16 22:59:59.892 Info  085:     after 5000
22/09/16 23:00:05.417 Info  026:     incr loopVar0 1
22/09/16 23:00:05.443 Info  028:     miriate::ir::send 'TV_Guide'
22/09/16 23:00:05.450 Info  Result: ATE_OK
22/09/16 23:00:06.935 Info  Result: ATE_OK
22/09/16 23:00:06.971 Info  029:     set epgMainScreen [miriate::av::regioncompare 95.0 $EPGMainBlackBackgroundImage $EPGMainMask 'SYNC' 'ALL' 10000 'ALL']
22/09/16 23:00:06.975 Info  029:     set epgMainScreen [miriate::av::regioncompare 95.0 iQ3_EPGMainBlackBackground_v1.10.1.10 iQ3_EPGMain 'SYNC' 'ALL' 10000 'ALL']
22/09/16 23:00:06.989 Info  030:     if {[miriate::result::isok $epgMainScreen]} {
22/09/16 23:00:06.991 Info  030:     if {[miriate::result::isok 0]} {
22/09/16 23:00:07.  5 Info  030:     miriate::result::isok $epgMainScreen]
22/09/16 23:00:07. 17 Info  030:     miriate::result::isok 0]
22/09/16 23:00:07. 24 Info  Result: ATE_OK
22/09/16 23:00:09.232 Info  Result: ATE_OK
22/09/16 23:00:11.461 Info  Result: ATE_OK
22/09/16 23:00:13.682 Info  Result: ATE_OK
22/09/16 23:00:15.904 Info  Result: ATE_OK
22/09/16 23:00:21. 39 Warn  Result: ANALYSER: TIME_OUT
22/09/16 23:00:21. 65 Warn  Timeout map: '28'
22/09/16 23:00:21. 80 Info  084:     miriate::ir::send 'Foxtel'
22/09/16 23:00:21. 85 Info  Result: ATE_OK
22/09/16 23:00:21.100 Info  085:     after 5000
22/09/16 23:00:26.624 Info  026:     incr loopVar0 1
22/09/16 23:00:26.648 Info  028:     miriate::ir::send 'TV_Guide'
22/09/16 23:00:26.653 Info  Result: ATE_OK
22/09/16 23:00:28.189 Info  Result: ATE_OK
22/09/16 23:00:28.226 Info  029:     set epgMainScreen [miriate::av::regioncompare 95.0 $EPGMainBlackBackgroundImage $EPGMainMask 'SYNC' 'ALL' 10000 'ALL']
22/09/16 23:00:28.231 Info  029:     set epgMainScreen [miriate::av::regioncompare 95.0 iQ3_EPGMainBlackBackground_v1.10.1.10 iQ3_EPGMain 'SYNC' 'ALL' 10000 'ALL']
22/09/16 23:00:28.245 Info  030:     if {[miriate::result::isok $epgMainScreen]} {
22/09/16 23:00:28.250 Info  030:     if {[miriate::result::isok 0]} {
22/09/16 23:00:28.264 Info  030:     miriate::result::isok $epgMainScreen]
22/09/16 23:00:28.270 Info  030:     miriate::result::isok 0]
22/09/16 23:00:28.275 Info  Result: ATE_OK
22/09/16 23:00:30.483 Info  Result: ATE_OK
22/09/16 23:00:32.716 Info  Result: ATE_OK
22/09/16 23:00:34.945 Info  Result: ATE_OK
22/09/16 23:00:37.179 Info  Result: ATE_OK
22/09/16 23:00:39.402 Info  Result: ATE_OK
22/09/16 23:00:41.542 Info  Result: ATE_OK
22/09/16 23:00:41.570 Info  084:     miriate::ir::send 'Foxtel'
22/09/16 23:00:41.575 Info  Result: ATE_OK
22/09/16 23:00:41.588 Info  085:     after 5000
22/09/16 23:00:47.114 Info  026:     incr loopVar0 1
22/09/16 23:00:47.143 Info  028:     miriate::ir::send 'TV_Guide'
22/09/16 23:00:47.148 Info  Result: ATE_OK
22/09/16 23:00:48.633 Info  Result: ATE_OK
22/09/16 23:00:48.673 Info  029:     set epgMainScreen [miriate::av::regioncompare 95.0 $EPGMainBlackBackgroundImage $EPGMainMask 'SYNC' 'ALL' 10000 'ALL']
22/09/16 23:00:48.678 Info  029:     set epgMainScreen [miriate::av::regioncompare 95.0 iQ3_EPGMainBlackBackground_v1.10.1.10 iQ3_EPGMain 'SYNC' 'ALL' 10000 'ALL']
22/09/16 23:00:48.692 Info  030:     if {[miriate::result::isok $epgMainScreen]} {
22/09/16 23:00:48.696 Info  030:     if {[miriate::result::isok 0]} {
22/09/16 23:00:48.710 Info  030:     miriate::result::isok $epgMainScreen]
22/09/16 23:00:48.714 Info  030:     miriate::result::isok 0]
22/09/16 23:00:48.719 Info  Result: ATE_OK
22/09/16 23:00:50.929 Info  Result: ATE_OK
22/09/16 23:00:56. 66 Warn  Result: ANALYSER: TIME_OUT
22/09/16 23:00:56.101 Warn  Timeout map: '28'
22/09/16 23:00:56.116 Info  084:     miriate::ir::send 'Foxtel'
22/09/16 23:00:56.118 Info  Result: ATE_OK
22/09/16 23:00:56.132 Info  085:     after 5000
22/09/16 23:01:01.654 Info  026:     incr loopVar0 1
22/09/16 23:01:01.692 Info  028:     miriate::ir::send 'TV_Guide'
22/09/16 23:01:01.699 Info  Result: ATE_OK
22/09/16 23:01:02.975 Info  Result: ATE_OK
22/09/16 23:01:03. 11 Info  029:     set epgMainScreen [miriate::av::regioncompare 95.0 $EPGMainBlackBackgroundImage $EPGMainMask 'SYNC' 'ALL' 10000 'ALL']
22/09/16 23:01:03. 25 Info  029:     set epgMainScreen [miriate::av::regioncompare 95.0 iQ3_EPGMainBlackBackground_v1.10.1.10 iQ3_EPGMain 'SYNC' 'ALL' 10000 'ALL']
22/09/16 23:01:03. 39 Info  030:     if {[miriate::result::isok $epgMainScreen]} {
22/09/16 23:01:03. 44 Info  030:     if {[miriate::result::isok 0]} {
22/09/16 23:01:03. 58 Info  030:     miriate::result::isok $epgMainScreen]
22/09/16 23:01:03. 63 Info  030:     miriate::result::isok 0]
22/09/16 23:01:03. 69 Info  Result: ATE_OK
22/09/16 23:01:05.277 Info  Result: ATE_OK
22/09/16 23:01:07.512 Info  Result: ATE_OK
22/09/16 23:01:12.586 Warn  Result: ANALYSER: TIME_OUT
22/09/16 23:01:12.610 Warn  Timeout map: '28'
22/09/16 23:01:12.627 Info  084:     miriate::ir::send 'Foxtel'
22/09/16 23:01:12.632 Info  Result: ATE_OK
22/09/16 23:01:12.646 Info  085:     after 5000
22/09/16 23:01:18.171 Info  026:     incr loopVar0 1
22/09/16 23:01:18.221 Info  028:     miriate::ir::send 'TV_Guide'
22/09/16 23:01:18.226 Info  Result: ATE_OK
22/09/16 23:01:19.501 Info  Result: ATE_OK
22/09/16 23:01:19.536 Info  029:     set epgMainScreen [miriate::av::regioncompare 95.0 $EPGMainBlackBackgroundImage $EPGMainMask 'SYNC' 'ALL' 10000 'ALL']
22/09/16 23:01:19.541 Info  029:     set epgMainScreen [miriate::av::regioncompare 95.0 iQ3_EPGMainBlackBackground_v1.10.1.10 iQ3_EPGMain 'SYNC' 'ALL' 10000 'ALL']
22/09/16 23:01:19.555 Info  030:     if {[miriate::result::isok $epgMainScreen]} {
22/09/16 23:01:19.559 Info  030:     if {[miriate::result::isok 0]} {
22/09/16 23:01:19.573 Info  030:     miriate::result::isok $epgMainScreen]
22/09/16 23:01:19.577 Info  030:     miriate::result::isok 0]
22/09/16 23:01:19.582 Info  Result: ATE_OK
22/09/16 23:01:21.790 Info  Result: ATE_OK
22/09/16 23:01:24. 15 Info  Result: ATE_OK
22/09/16 23:01:26.256 Info  Result: ATE_OK
22/09/16 23:01:28.477 Info  Result: ATE_OK
22/09/16 23:01:30.609 Info  Result: ATE_OK
22/09/16 23:01:30.654 Info  084:     miriate::ir::send 'Foxtel'
22/09/16 23:01:30.661 Info  Result: ATE_OK
22/09/16 23:01:30.675 Info  085:     after 5000
22/09/16 23:01:36.201 Info  026:     incr loopVar0 1
22/09/16 23:01:36.238 Info  028:     miriate::ir::send 'TV_Guide'
22/09/16 23:01:36.243 Info  Result: ATE_OK
22/09/16 23:01:37.938 Info  Result: ATE_OK
22/09/16 23:01:37.975 Info  029:     set epgMainScreen [miriate::av::regioncompare 95.0 $EPGMainBlackBackgroundImage $EPGMainMask 'SYNC' 'ALL' 10000 'ALL']
22/09/16 23:01:37.980 Info  029:     set epgMainScreen [miriate::av::regioncompare 95.0 iQ3_EPGMainBlackBackground_v1.10.1.10 iQ3_EPGMain 'SYNC' 'ALL' 10000 'ALL']
22/09/16 23:01:37.994 Info  030:     if {[miriate::result::isok $epgMainScreen]} {
22/09/16 23:01:37.998 Info  030:     if {[miriate::result::isok 0]} {
22/09/16 23:01:38. 12 Info  030:     miriate::result::isok $epgMainScreen]
22/09/16 23:01:38. 36 Info  030:     miriate::result::isok 0]
22/09/16 23:01:38. 43 Info  Result: ATE_OK
22/09/16 23:01:40.253 Info  Result: ATE_OK
22/09/16 23:01:42.489 Info  Result: ATE_OK
22/09/16 23:01:44.709 Info  Result: ATE_OK
22/09/16 23:01:46.939 Info  Result: ATE_OK
22/09/16 23:01:49.159 Info  Result: ATE_OK
22/09/16 23:01:51.139 Info  Result: ATE_OK
22/09/16 23:01:51.175 Info  084:     miriate::ir::send 'Foxtel'
22/09/16 23:01:51.180 Info  Result: ATE_OK
22/09/16 23:01:51.194 Info  085:     after 5000
22/09/16 23:01:56.716 Info  026:     incr loopVar0 1
22/09/16 23:01:56.740 Info  028:     miriate::ir::send 'TV_Guide'
22/09/16 23:01:56.746 Info  Result: ATE_OK
22/09/16 23:01:58.231 Info  Result: ATE_OK
22/09/16 23:01:58.271 Info  029:     set epgMainScreen [miriate::av::regioncompare 95.0 $EPGMainBlackBackgroundImage $EPGMainMask 'SYNC' 'ALL' 10000 'ALL']
22/09/16 23:01:58.278 Info  029:     set epgMainScreen [miriate::av::regioncompare 95.0 iQ3_EPGMainBlackBackground_v1.10.1.10 iQ3_EPGMain 'SYNC' 'ALL' 10000 'ALL']
22/09/16 23:01:58.292 Info  030:     if {[miriate::result::isok $epgMainScreen]} {
22/09/16 23:01:58.297 Info  030:     if {[miriate::result::isok 0]} {
22/09/16 23:01:58.312 Info  030:     miriate::result::isok $epgMainScreen]
22/09/16 23:01:58.317 Info  030:     miriate::result::isok 0]
22/09/16 23:01:58.322 Info  Result: ATE_OK
22/09/16 23:02:00.530 Info  Result: ATE_OK
22/09/16 23:02:02.251 Info  Result: ATE_OK
22/09/16 23:02:02.278 Info  084:     miriate::ir::send 'Foxtel'
22/09/16 23:02:02.284 Info  Result: ATE_OK
22/09/16 23:02:02.299 Info  085:     after 5000
22/09/16 23:02:07.823 Info  026:     incr loopVar0 1
22/09/16 23:02:07.848 Info  028:     miriate::ir::send 'TV_Guide'
22/09/16 23:02:07.854 Info  Result: ATE_OK
22/09/16 23:02:09.340 Info  Result: ATE_OK
22/09/16 23:02:09.380 Info  029:     set epgMainScreen [miriate::av::regioncompare 95.0 $EPGMainBlackBackgroundImage $EPGMainMask 'SYNC' 'ALL' 10000 'ALL']
22/09/16 23:02:09.384 Info  029:     set epgMainScreen [miriate::av::regioncompare 95.0 iQ3_EPGMainBlackBackground_v1.10.1.10 iQ3_EPGMain 'SYNC' 'ALL' 10000 'ALL']
22/09/16 23:02:09.398 Info  030:     if {[miriate::result::isok $epgMainScreen]} {
22/09/16 23:02:09.403 Info  030:     if {[miriate::result::isok 0]} {
22/09/16 23:02:09.418 Info  030:     miriate::result::isok $epgMainScreen]
22/09/16 23:02:09.420 Info  030:     miriate::result::isok 0]
22/09/16 23:02:09.425 Info  Result: ATE_OK
22/09/16 23:02:11.633 Info  Result: ATE_OK
22/09/16 23:02:13.851 Info  Result: ATE_OK
22/09/16 23:02:18.929 Warn  Result: ANALYSER: TIME_OUT
22/09/16 23:02:18.952 Warn  Timeout map: '28'
22/09/16 23:02:18.969 Info  084:     miriate::ir::send 'Foxtel'
22/09/16 23:02:18.972 Info  Result: ATE_OK
22/09/16 23:02:18.985 Info  085:     after 5000
22/09/16 23:02:24.508 Info  026:     incr loopVar0 1
22/09/16 23:02:24.544 Info  028:     miriate::ir::send 'TV_Guide'
22/09/16 23:02:24.550 Info  Result: ATE_OK
22/09/16 23:02:25.825 Info  Result: ATE_OK
22/09/16 23:02:25.888 Info  029:     set epgMainScreen [miriate::av::regioncompare 95.0 $EPGMainBlackBackgroundImage $EPGMainMask 'SYNC' 'ALL' 10000 'ALL']
22/09/16 23:02:25.894 Info  029:     set epgMainScreen [miriate::av::regioncompare 95.0 iQ3_EPGMainBlackBackground_v1.10.1.10 iQ3_EPGMain 'SYNC' 'ALL' 10000 'ALL']
22/09/16 23:02:25.908 Info  030:     if {[miriate::result::isok $epgMainScreen]} {
22/09/16 23:02:25.913 Info  030:     if {[miriate::result::isok 0]} {
22/09/16 23:02:25.928 Info  030:     miriate::result::isok $epgMainScreen]
22/09/16 23:02:25.933 Info  030:     miriate::result::isok 0]
22/09/16 23:02:25.939 Info  Result: ATE_OK
22/09/16 23:02:28.147 Info  Result: ATE_OK
22/09/16 23:02:30.380 Info  Result: ATE_OK
22/09/16 23:02:32.611 Info  Result: ATE_OK
22/09/16 23:02:34.835 Info  Result: ATE_OK
22/09/16 23:02:39.974 Warn  Result: ANALYSER: TIME_OUT
22/09/16 23:02:40.  0 Warn  Timeout map: '28'
22/09/16 23:02:40. 14 Info  084:     miriate::ir::send 'Foxtel'
22/09/16 23:02:40. 29 Info  Result: ATE_OK
22/09/16 23:02:40. 45 Info  085:     after 5000
22/09/16 23:02:45.568 Info  026:     incr loopVar0 1
22/09/16 23:02:45.627 Info  028:     miriate::ir::send 'TV_Guide'
22/09/16 23:02:45.634 Info  Result: ATE_OK
22/09/16 23:02:47.119 Info  Result: ATE_OK
22/09/16 23:02:47.155 Info  029:     set epgMainScreen [miriate::av::regioncompare 95.0 $EPGMainBlackBackgroundImage $EPGMainMask 'SYNC' 'ALL' 10000 'ALL']
22/09/16 23:02:47.161 Info  029:     set epgMainScreen [miriate::av::regioncompare 95.0 iQ3_EPGMainBlackBackground_v1.10.1.10 iQ3_EPGMain 'SYNC' 'ALL' 10000 'ALL']
22/09/16 23:02:47.176 Info  030:     if {[miriate::result::isok $epgMainScreen]} {
22/09/16 23:02:47.181 Info  030:     if {[miriate::result::isok 0]} {
22/09/16 23:02:47.195 Info  030:     miriate::result::isok $epgMainScreen]
22/09/16 23:02:47.201 Info  030:     miriate::result::isok 0]
22/09/16 23:02:47.206 Info  Result: ATE_OK
22/09/16 23:02:49.414 Info  Result: ATE_OK
22/09/16 23:02:51.645 Info  Result: ATE_OK
22/09/16 23:02:53.873 Info  Result: ATE_OK
22/09/16 23:02:56. 93 Info  Result: ATE_OK
22/09/16 23:02:58.314 Info  Result: ATE_OK
22/09/16 23:03:03.443 Warn  Result: ANALYSER: TIME_OUT
22/09/16 23:03:03.474 Warn  Timeout map: '28'
22/09/16 23:03:03.489 Info  084:     miriate::ir::send 'Foxtel'
22/09/16 23:03:03.494 Info  Result: ATE_OK
22/09/16 23:03:03.509 Info  085:     after 5000
22/09/16 23:03:09. 34 Info  026:     incr loopVar0 1
22/09/16 23:03:09. 89 Info  028:     miriate::ir::send 'TV_Guide'
22/09/16 23:03:09. 95 Info  Result: ATE_OK
22/09/16 23:03:10.370 Info  Result: ATE_OK
22/09/16 23:03:10.411 Info  029:     set epgMainScreen [miriate::av::regioncompare 95.0 $EPGMainBlackBackgroundImage $EPGMainMask 'SYNC' 'ALL' 10000 'ALL']
22/09/16 23:03:10.417 Info  029:     set epgMainScreen [miriate::av::regioncompare 95.0 iQ3_EPGMainBlackBackground_v1.10.1.10 iQ3_EPGMain 'SYNC' 'ALL' 10000 'ALL']
22/09/16 23:03:10.431 Info  030:     if {[miriate::result::isok $epgMainScreen]} {
22/09/16 23:03:10.436 Info  030:     if {[miriate::result::isok 0]} {
22/09/16 23:03:10.451 Info  030:     miriate::result::isok $epgMainScreen]
22/09/16 23:03:10.456 Info  030:     miriate::result::isok 0]
22/09/16 23:03:10.462 Info  Result: ATE_OK
22/09/16 23:03:12.670 Info  Result: ATE_OK
22/09/16 23:03:17.806 Warn  Result: ANALYSER: TIME_OUT
22/09/16 23:03:17.844 Warn  Timeout map: '28'
22/09/16 23:03:17.859 Info  084:     miriate::ir::send 'Foxtel'
22/09/16 23:03:17.865 Info  Result: ATE_OK
22/09/16 23:03:17.879 Info  085:     after 5000
22/09/16 23:03:23.405 Info  026:     incr loopVar0 1
22/09/16 23:03:23.429 Info  028:     miriate::ir::send 'TV_Guide'
22/09/16 23:03:23.435 Info  Result: ATE_OK
22/09/16 23:03:25.131 Info  Result: ATE_OK
22/09/16 23:03:25.175 Info  029:     set epgMainScreen [miriate::av::regioncompare 95.0 $EPGMainBlackBackgroundImage $EPGMainMask 'SYNC' 'ALL' 10000 'ALL']
22/09/16 23:03:25.180 Info  029:     set epgMainScreen [miriate::av::regioncompare 95.0 iQ3_EPGMainBlackBackground_v1.10.1.10 iQ3_EPGMain 'SYNC' 'ALL' 10000 'ALL']
22/09/16 23:03:25.194 Info  030:     if {[miriate::result::isok $epgMainScreen]} {
22/09/16 23:03:25.199 Info  030:     if {[miriate::result::isok 0]} {
22/09/16 23:03:25.213 Info  030:     miriate::result::isok $epgMainScreen]
22/09/16 23:03:25.216 Info  030:     miriate::result::isok 0]
22/09/16 23:03:25.221 Info  Result: ATE_OK
22/09/16 23:03:27.429 Info  Result: ATE_OK
22/09/16 23:03:29.662 Info  Result: ATE_OK
22/09/16 23:03:34.748 Warn  Result: ANALYSER: TIME_OUT
22/09/16 23:03:34.774 Warn  Timeout map: '28'
22/09/16 23:03:34.790 Info  084:     miriate::ir::send 'Foxtel'
22/09/16 23:03:34.795 Info  Result: ATE_OK
22/09/16 23:03:34.810 Info  085:     after 5000
22/09/16 23:03:40.335 Info  026:     incr loopVar0 1
22/09/16 23:03:40.371 Info  028:     miriate::ir::send 'TV_Guide'
22/09/16 23:03:40.378 Info  Result: ATE_OK
22/09/16 23:03:50.489 Warn  Result: ANALYSER: TIME_OUT
22/09/16 23:03:50.517 Warn  Timeout map: '28'
22/09/16 23:03:50.531 Info  029:     set epgMainScreen [miriate::av::regioncompare 95.0 $EPGMainBlackBackgroundImage $EPGMainMask 'SYNC' 'ALL' 10000 'ALL']
22/09/16 23:03:50.533 Info  029:     set epgMainScreen [miriate::av::regioncompare 95.0 iQ3_EPGMainBlackBackground_v1.10.1.10 iQ3_EPGMain 'SYNC' 'ALL' 10000 'ALL']
22/09/16 23:03:50.547 Info  030:     if {[miriate::result::isok $epgMainScreen]} {
22/09/16 23:03:50.549 Info  030:     if {[miriate::result::isok 2147680261]} {
22/09/16 23:03:50.563 Info  030:     miriate::result::isok $epgMainScreen]
22/09/16 23:03:50.569 Info  030:     miriate::result::isok 2147680261]
22/09/16 23:03:50.583 Info  084:     miriate::ir::send 'Foxtel'
22/09/16 23:03:50.586 Info  Result: ATE_OK
22/09/16 23:03:50.599 Info  085:     after 5000
22/09/16 23:03:56.121 Info  026:     incr loopVar0 1
22/09/16 23:03:56.157 Info  028:     miriate::ir::send 'TV_Guide'
22/09/16 23:03:56.163 Info  Result: ATE_OK
22/09/16 23:03:57.649 Info  Result: ATE_OK
22/09/16 23:03:57.689 Info  029:     set epgMainScreen [miriate::av::regioncompare 95.0 $EPGMainBlackBackgroundImage $EPGMainMask 'SYNC' 'ALL' 10000 'ALL']
22/09/16 23:03:57.695 Info  029:     set epgMainScreen [miriate::av::regioncompare 95.0 iQ3_EPGMainBlackBackground_v1.10.1.10 iQ3_EPGMain 'SYNC' 'ALL' 10000 'ALL']
22/09/16 23:03:57.709 Info  030:     if {[miriate::result::isok $epgMainScreen]} {
22/09/16 23:03:57.714 Info  030:     if {[miriate::result::isok 0]} {
22/09/16 23:03:57.729 Info  030:     miriate::result::isok $epgMainScreen]
22/09/16 23:03:57.734 Info  030:     miriate::result::isok 0]
22/09/16 23:03:57.740 Info  Result: ATE_OK
22/09/16 23:03:59.948 Info  Result: ATE_OK
22/09/16 23:04:02.178 Info  Result: ATE_OK
22/09/16 23:04:04.400 Info  Result: ATE_OK
22/09/16 23:04:06.632 Info  Result: ATE_OK
22/09/16 23:04:08.855 Info  Result: ATE_OK
22/09/16 23:04:10.836 Info  Result: ATE_OK
22/09/16 23:04:10.864 Info  084:     miriate::ir::send 'Foxtel'
22/09/16 23:04:10.871 Info  Result: ATE_OK
22/09/16 23:04:10.886 Info  085:     after 5000
22/09/16 23:04:16.410 Info  026:     incr loopVar0 1
22/09/16 23:04:16.433 Info  089: for {set i 0} {$i < [llength $timeNumber]} {incr i} {
22/09/16 23:04:16.449 Info  089:     set i 0
22/09/16 23:04:16.463 Info  089: llength $timeNumber]
22/09/16 23:04:16.467 Info  089: llength 6620 2784 2149 8052]
22/09/16 23:04:16.481 Info  090:     printTotalTime_1 [lindex $timeNumber $i] [lindex $runNumber $i] iQ3_PerformanceEPGChannelGenre$i
22/09/16 23:04:16.484 Info  090:     printTotalTime_1 [lindex 6620 2784 2149 8052 0] [lindex 3 2 1 4 0] iQ3_PerformanceEPGChannelGenre0
22/09/16 23:04:16.488 Info  Total iQ3_PerformanceEPGChannelGenre0 Time: 6620
22/09/16 23:04:16.492 Info  Total iQ3_PerformanceEPGChannelGenre0 Run: 3
22/09/16 23:04:16.496 Info  Total iQ3_PerformanceEPGChannelGenre0 averageTime: 2206.66666667
22/09/16 23:04:16.510 Info  089:     incr i
22/09/16 23:04:16.525 Info  089: llength $timeNumber]
22/09/16 23:04:16.528 Info  089: llength 6620 2784 2149 8052]
22/09/16 23:04:16.542 Info  090:     printTotalTime_1 [lindex $timeNumber $i] [lindex $runNumber $i] iQ3_PerformanceEPGChannelGenre$i
22/09/16 23:04:16.547 Info  090:     printTotalTime_1 [lindex 6620 2784 2149 8052 1] [lindex 3 2 1 4 1] iQ3_PerformanceEPGChannelGenre1
22/09/16 23:04:16.551 Info  Total iQ3_PerformanceEPGChannelGenre1 Time: 2784
22/09/16 23:04:16.555 Info  Total iQ3_PerformanceEPGChannelGenre1 Run: 2
22/09/16 23:04:16.559 Info  Total iQ3_PerformanceEPGChannelGenre1 averageTime: 1392.0
22/09/16 23:04:16.573 Info  089:     incr i
22/09/16 23:04:16.586 Info  089: llength $timeNumber]
22/09/16 23:04:16.590 Info  089: llength 6620 2784 2149 8052]
22/09/16 23:04:16.604 Info  090:     printTotalTime_1 [lindex $timeNumber $i] [lindex $runNumber $i] iQ3_PerformanceEPGChannelGenre$i
22/09/16 23:04:16.608 Info  090:     printTotalTime_1 [lindex 6620 2784 2149 8052 2] [lindex 3 2 1 4 2] iQ3_PerformanceEPGChannelGenre2
22/09/16 23:04:16.612 Info  Total iQ3_PerformanceEPGChannelGenre2 Time: 2149
22/09/16 23:04:16.616 Info  Total iQ3_PerformanceEPGChannelGenre2 Run: 1
22/09/16 23:04:16.620 Info  Total iQ3_PerformanceEPGChannelGenre2 averageTime: 2149.0
22/09/16 23:04:16.634 Info  089:     incr i
22/09/16 23:04:16.648 Info  089: llength $timeNumber]
22/09/16 23:04:16.652 Info  089: llength 6620 2784 2149 8052]
22/09/16 23:04:16.666 Info  090:     printTotalTime_1 [lindex $timeNumber $i] [lindex $runNumber $i] iQ3_PerformanceEPGChannelGenre$i
22/09/16 23:04:16.670 Info  090:     printTotalTime_1 [lindex 6620 2784 2149 8052 3] [lindex 3 2 1 4 3] iQ3_PerformanceEPGChannelGenre3
22/09/16 23:04:16.674 Info  Total iQ3_PerformanceEPGChannelGenre3 Time: 8052
22/09/16 23:04:16.678 Info  Total iQ3_PerformanceEPGChannelGenre3 Run: 4
22/09/16 23:04:16.682 Info  Total iQ3_PerformanceEPGChannelGenre3 averageTime: 2013.0
22/09/16 23:04:16.696 Info  089:     incr i
22/09/16 23:04:16.710 Info  089: llength $timeNumber]
22/09/16 23:04:16.714 Info  089: llength 6620 2784 2149 8052]
