CAB30 'applejuice',2509.8,2086.16666667,2562.0,2496.85714286,
CAB30 'kelvinsjuice',2509.8,2086.16666667,2562.0,2496.85714286,
CAB30 'iQ3_PerformanceEPGChannelGroup',2509.8,2086.16666667,2562.0,2496.85714286,
CAB25 'iQ3_PerformanceEPGChannelGroup',2297.16666667,1999.28571429,2097.25,2419.5,
CAB29 'iQ3_PerformanceEPGChannelGroup',2622.5,1642.2,2314.66666667,2263.85714286,
CAB28 'iQ3_PerformanceEPGChannelGroup',2206.66666667,1392.0,2149.0,2013.0,
