10.116.1.1
10.116.1.2
10.116.1.3
10.116.1.4
10.116.1.5
10.116.1.6
10.116.1.7
10.116.1.8
10.116.1.9
10.116.1.10
10.116.1.11
10.116.1.12
10.116.1.13
10.116.1.14
10.116.1.15
10.116.1.16
10.116.2.1
10.116.2.2
10.116.2.3
10.116.2.4
10.116.2.5
10.116.2.6
10.116.2.7
10.116.2.8
10.116.2.9
10.116.2.10
10.116.2.11
10.116.2.12
10.116.2.13
10.116.2.14
10.116.2.15
10.116.2.16
10.116.3.1
10.116.3.2
10.116.3.3
10.116.3.4
10.116.3.5
10.116.3.6
10.116.3.7
10.116.3.8
10.116.3.9
10.116.3.10
10.116.3.11
10.116.3.12
10.116.3.13
10.116.3.14
10.116.3.15
10.116.3.16
10.116.4.1
10.116.4.2
10.116.4.3
10.116.4.4
10.116.4.5
10.116.4.6
10.116.4.7
10.116.4.8
10.116.4.9
10.116.4.10
10.116.4.11
10.116.4.12
10.116.4.13
10.116.4.14
10.116.4.15
10.116.4.16
10.116.5.1
10.116.5.2
10.116.5.3
10.116.5.4
10.116.5.5
10.116.5.6
10.116.5.7
10.116.5.8
10.116.5.9
10.116.5.10
10.116.5.11
10.116.5.12
10.116.5.13
10.116.5.14
10.116.5.15
10.116.5.16
10.116.6.1
10.116.6.2
10.116.6.3
10.116.6.4
10.116.6.5
10.116.6.6
10.116.6.7
10.116.6.8
10.116.6.9
10.116.6.10
10.116.6.11
10.116.6.12
10.116.6.13
10.116.6.14
10.116.6.15
10.116.6.16
10.116.7.1
10.116.7.2
10.116.7.3
10.116.7.4
10.116.7.5
10.116.7.6
10.116.7.7
10.116.7.8
10.116.7.9
10.116.7.10
10.116.7.11
10.116.7.12
10.116.7.13
10.116.7.14
10.116.7.15
10.116.7.16
10.116.8.1
10.116.8.2
10.116.8.3
10.116.8.4
10.116.8.5
10.116.8.6
10.116.8.7
10.116.8.8
10.116.8.9
10.116.8.10
10.116.8.11
10.116.8.12
10.116.8.13
10.116.8.14
10.116.8.15
10.116.8.16
10.116.9.1
10.116.9.2
10.116.9.3
10.116.9.4
10.116.9.5
10.116.9.6
10.116.9.7
10.116.9.8
10.116.9.9
10.116.9.10
10.116.9.11
10.116.9.12
10.116.9.13
10.116.9.14
10.116.9.15
10.116.9.16
10.116.10.1
10.116.10.2
10.116.10.3
10.116.10.4
10.116.10.5
10.116.10.6
10.116.10.7
10.116.10.8
10.116.10.9
10.116.10.10
10.116.10.11
10.116.10.12
10.116.10.13
10.116.10.14
10.116.10.15
10.116.10.16
10.116.11.1
10.116.11.2
10.116.11.3
10.116.11.4
10.116.11.5
10.116.11.6
10.116.11.7
10.116.11.8
10.116.11.9
10.116.11.10
10.116.11.11
10.116.11.12
10.116.11.13
10.116.11.14
10.116.11.15
10.116.11.16
10.116.12.1
10.116.12.2
10.116.12.3
10.116.12.4
10.116.12.5
10.116.12.6
10.116.12.7
10.116.12.8
10.116.12.9
10.116.12.10
10.116.12.11
10.116.12.12
10.116.12.13
10.116.12.14
10.116.12.15
10.116.12.16
10.116.13.1
10.116.13.2
10.116.13.3
10.116.13.4
10.116.13.5
10.116.13.6
10.116.13.7
10.116.13.8
10.116.13.9
10.116.13.10
10.116.13.11
10.116.13.12
10.116.13.13
10.116.13.14
10.116.13.15
10.116.13.16
10.116.14.1
10.116.14.2
10.116.14.3
10.116.14.4
10.116.14.5
10.116.14.6
10.116.14.7
10.116.14.8
10.116.14.9
10.116.14.10
10.116.14.11
10.116.14.12
10.116.14.13
10.116.14.14
10.116.14.15
10.116.14.16
10.116.15.1
10.116.15.2
10.116.15.3
10.116.15.4
10.116.15.5
10.116.15.6
10.116.15.7
10.116.15.8
10.116.15.9
10.116.15.10
10.116.15.11
10.116.15.12
10.116.15.13
10.116.15.14
10.116.15.15
10.116.15.16
10.116.16.1
10.116.16.2
10.116.16.3
10.116.16.4
10.116.16.5
10.116.16.6
10.116.16.7
10.116.16.8
10.116.16.9
10.116.16.10
10.116.16.11
10.116.16.12
10.116.16.13
10.116.16.14
10.116.16.15
10.116.16.16
10.116.17.1
10.116.17.2
10.116.17.3
10.116.17.4
10.116.17.5
10.116.17.6
10.116.17.7
10.116.17.8
10.116.17.9
10.116.17.10
10.116.17.11
10.116.17.12
10.116.17.13
10.116.17.14
10.116.17.15
10.116.17.16
10.116.18.1
10.116.18.2
10.116.18.3
10.116.18.4
10.116.18.5
10.116.18.6
10.116.18.7
10.116.18.8
10.116.18.9
10.116.18.10
10.116.18.11
10.116.18.12
10.116.18.13
10.116.18.14
10.116.18.15
10.116.18.16
10.116.19.1
10.116.19.2
10.116.19.3
10.116.19.4
10.116.19.5
10.116.19.6
10.116.19.7
10.116.19.8
10.116.19.9
10.116.19.10
10.116.19.11
10.116.19.12
10.116.19.13
10.116.19.14
10.116.19.15
10.116.19.16
10.116.20.1
10.116.20.2
10.116.20.3
10.116.20.4
10.116.20.5
10.116.20.6
10.116.20.7
10.116.20.8
10.116.20.9
10.116.20.10
10.116.20.11
10.116.20.12
10.116.20.13
10.116.20.14
10.116.20.15
10.116.20.16
10.116.21.1
10.116.21.2
10.116.21.3
10.116.21.4
10.116.21.5
10.116.21.6
10.116.21.7
10.116.21.8
10.116.21.9
10.116.21.10
10.116.21.11
10.116.21.12
10.116.21.13
10.116.21.14
10.116.21.15
10.116.21.16
10.116.22.1
10.116.22.2
10.116.22.3
10.116.22.4
10.116.22.5
10.116.22.6
10.116.22.7
10.116.22.8
10.116.22.9
10.116.22.10
10.116.22.11
10.116.22.12
10.116.22.13
10.116.22.14
10.116.22.15
10.116.22.16
10.116.23.1
10.116.23.2
10.116.23.3
10.116.23.4
10.116.23.5
10.116.23.6
10.116.23.7
10.116.23.8
10.116.23.9
10.116.23.10
10.116.23.11
10.116.23.12
10.116.23.13
10.116.23.14
10.116.23.15
10.116.23.16
10.116.24.1
10.116.24.2
10.116.24.3
10.116.24.4
10.116.24.5
10.116.24.6
10.116.24.7
10.116.24.8
10.116.24.9
10.116.24.10
10.116.24.11
10.116.24.12
10.116.24.13
10.116.24.14
10.116.24.15
10.116.24.16
10.116.25.1
10.116.25.2
10.116.25.3
10.116.25.4
10.116.25.5
10.116.25.6
10.116.25.7
10.116.25.8
10.116.25.9
10.116.25.10
10.116.25.11
10.116.25.12
10.116.25.13
10.116.25.14
10.116.25.15
10.116.25.16
10.116.26.1
10.116.26.2
10.116.26.3
10.116.26.4
10.116.26.5
10.116.26.6
10.116.26.7
10.116.26.8
10.116.26.9
10.116.26.10
10.116.26.11
10.116.26.12
10.116.26.13
10.116.26.14
10.116.26.15
10.116.26.16
10.116.27.1
10.116.27.2
10.116.27.3
10.116.27.4
10.116.27.5
10.116.27.6
10.116.27.7
10.116.27.8
10.116.27.9
10.116.27.10
10.116.27.11
10.116.27.12
10.116.27.13
10.116.27.14
10.116.27.15
10.116.27.16
10.116.28.1
10.116.28.2
10.116.28.3
10.116.28.4
10.116.28.5
10.116.28.6
10.116.28.7
10.116.28.8
10.116.28.9
10.116.28.10
10.116.28.11
10.116.28.12
10.116.28.13
10.116.28.14
10.116.28.15
10.116.28.16
10.116.29.1
10.116.29.2
10.116.29.3
10.116.29.4
10.116.29.5
10.116.29.6
10.116.29.7
10.116.29.8
10.116.29.9
10.116.29.10
10.116.29.11
10.116.29.12
10.116.29.13
10.116.29.14
10.116.29.15
10.116.29.16
10.116.30.1
10.116.30.2
10.116.30.3
10.116.30.4
10.116.30.5
10.116.30.6
10.116.30.7
10.116.30.8
10.116.30.9
10.116.30.10
10.116.30.11
10.116.30.12
10.116.30.13
10.116.30.14
10.116.30.15
10.116.30.16
10.116.31.1
10.116.31.2
10.116.31.3
10.116.31.4
10.116.31.5
10.116.31.6
10.116.31.7
10.116.31.8
10.116.31.9
10.116.31.10
10.116.31.11
10.116.31.12
10.116.31.13
10.116.31.14
10.116.31.15
10.116.31.16
10.116.32.1
10.116.32.2
10.116.32.3
10.116.32.4
10.116.32.5
10.116.32.6
10.116.32.7
10.116.32.8
10.116.32.9
10.116.32.10
10.116.32.11
10.116.32.12
10.116.32.13
10.116.32.14
10.116.32.15
10.116.32.16
10.116.33.1
10.116.33.2
10.116.33.3
10.116.33.4
10.116.33.5
10.116.33.6
10.116.33.7
10.116.33.8
10.116.33.9
10.116.33.10
10.116.33.11
10.116.33.12
10.116.33.13
10.116.33.14
10.116.33.15
10.116.33.16
10.116.34.1
10.116.34.2
10.116.34.3
10.116.34.4
10.116.34.5
10.116.34.6
10.116.34.7
10.116.34.8
10.116.34.9
10.116.34.10
10.116.34.11
10.116.34.12
10.116.34.13
10.116.34.14
10.116.34.15
10.116.34.16
10.116.35.1
10.116.35.2
10.116.35.3
10.116.35.4
10.116.35.5
10.116.35.6
10.116.35.7
10.116.35.8
10.116.35.9
10.116.35.10
10.116.35.11
10.116.35.12
10.116.35.13
10.116.35.14
10.116.35.15
10.116.35.16
10.116.36.1
10.116.36.2
10.116.36.3
10.116.36.4
10.116.36.5
10.116.36.6
10.116.36.7
10.116.36.8
10.116.36.9
10.116.36.10
10.116.36.11
10.116.36.12
10.116.36.13
10.116.36.14
10.116.36.15
10.116.36.16
10.116.37.1
10.116.37.2
10.116.37.3
10.116.37.4
10.116.37.5
10.116.37.6
10.116.37.7
10.116.37.8
10.116.37.9
10.116.37.10
10.116.37.11
10.116.37.12
10.116.37.13
10.116.37.14
10.116.37.15
10.116.37.16
10.116.38.1
10.116.38.2
10.116.38.3
10.116.38.4
10.116.38.5
10.116.38.6
10.116.38.7
10.116.38.8
10.116.38.9
10.116.38.10
10.116.38.11
10.116.38.12
10.116.38.13
10.116.38.14
10.116.38.15
10.116.38.16
10.116.39.1
10.116.39.2
10.116.39.3
10.116.39.4
10.116.39.5
10.116.39.6
10.116.39.7
10.116.39.8
10.116.39.9
10.116.39.10
10.116.39.11
10.116.39.12
10.116.39.13
10.116.39.14
10.116.39.15
10.116.39.16
10.116.40.1
10.116.40.2
10.116.40.3
10.116.40.4
10.116.40.5
10.116.40.6
10.116.40.7
10.116.40.8
10.116.40.9
10.116.40.10
10.116.40.11
10.116.40.12
10.116.40.13
10.116.40.14
10.116.40.15
10.116.40.16
10.116.41.1
10.116.41.2
10.116.41.3
10.116.41.4
10.116.41.5
10.116.41.6
10.116.41.7
10.116.41.8
10.116.41.9
10.116.41.10
10.116.41.11
10.116.41.12
10.116.41.13
10.116.41.14
10.116.41.15
10.116.41.16
10.116.42.1
10.116.42.2
10.116.42.3
10.116.42.4
10.116.42.5
10.116.42.6
10.116.42.7
10.116.42.8
10.116.42.9
10.116.42.10
10.116.42.11
10.116.42.12
10.116.42.13
10.116.42.14
10.116.42.15
10.116.42.16
